…
Create a dataframe and assign it to a new object, where you summarise monthly returns since 2017-01-01 for each of the stocks and SPY; min, max, median, mean, SD.

summarise_monthly_returns <- myStocks_returns_monthly %>%
  group_by(symbol)%>%
  summarise(min_month_return = min(monthly_returns), 
            max_month_return = max(monthly_returns),
            median_month_return = median(monthly_returns),
            mean_month_return = mean(monthly_returns),
            sd_month_return = sd(monthly_returns)
            )
summarise_monthly_returns

## # A tibble: 31 x 6
##    symbol min_month_return max_month_return median_month_re… mean_month_retu…
##    <chr>             <dbl>            <dbl>            <dbl>            <dbl>
##  1 AAPL             -0.577            0.454           0.0352          0.0275 
##  2 AMGN             -0.170            0.328           0.0104          0.00916
##  3 AXP              -0.279            0.875           0.0102          0.00818
##  4 BA               -0.458            0.257           0.0179          0.0120 
##  5 CAT              -0.353            0.350           0.0133          0.0143 
##  6 CRM              -0.360            0.403           0.0205          0.0276 
##  7 CSCO             -0.367            0.389           0.0125          0.00495
##  8 CVX              -0.224            0.270           0.0122          0.00852
##  9 DIS              -0.268            0.234           0.0107          0.00980
## 10 DOW              -0.276            0.255           0.0456          0.00898
## # … with 21 more rows, and 1 more variable: sd_month_return <dbl>
…
